<?xml version="1.0" encoding="UTF-8" standalone="no"?>
<svg
   xmlns:dc="http://purl.org/dc/elements/1.1/"
   xmlns:cc="http://creativecommons.org/ns#"
   xmlns:rdf="http://www.w3.org/1999/02/22-rdf-syntax-ns#"
   xmlns:svg="http://www.w3.org/2000/svg"
   xmlns="http://www.w3.org/2000/svg"
   xmlns:sodipodi="http://sodipodi.sourceforge.net/DTD/sodipodi-0.dtd"
   xmlns:inkscape="http://www.inkscape.org/namespaces/inkscape"
   width="842pt"
   height="595pt"
   viewBox="0 0 842 595"
   version="1.2"
   id="svg104"
   sodipodi:docname="baseCurveGoodToGo.svg"
   inkscape:version="1.0.1 (1.0.1+r73)">
  <metadata
     id="metadata110">
    <rdf:RDF>
      <cc:Work
         rdf:about="">
        <dc:format>image/svg+xml</dc:format>
        <dc:type
           rdf:resource="http://purl.org/dc/dcmitype/StillImage" />
        <dc:title></dc:title>
      </cc:Work>
    </rdf:RDF>
  </metadata>
  <defs
     id="defs108" />
  <sodipodi:namedview
     pagecolor="#ffffff"
     bordercolor="#666666"
     borderopacity="1"
     objecttolerance="10"
     gridtolerance="10"
     guidetolerance="10"
     inkscape:pageopacity="0"
     inkscape:pageshadow="2"
     inkscape:window-width="1895"
     inkscape:window-height="1056"
     id="namedview106"
     showgrid="false"
     inkscape:zoom="1.5419681"
     inkscape:cx="516.73004"
     inkscape:cy="89.460825"
     inkscape:window-x="0"
     inkscape:window-y="0"
     inkscape:window-maximized="1"
     inkscape:current-layer="svg104"
     inkscape:document-rotation="0" />
  <g
     id="surface31685">
    <path
       style="fill:none;stroke:#000000;stroke-width:2;stroke-linecap:round;stroke-linejoin:round;stroke-miterlimit:10;stroke-opacity:1"
       d="m 6052.99,594.01 -60.96,-0.995 -57.89,0.042 -54.82,1.078 -51.75,2.113 -48.67,3.148 -45.59,4.182 -42.51,5.214 -39.43,6.247 -34.87,6.462 -33.56,6.754 -51.89,11.587 -48.34,12.306 -44.8,13.04 -21.06,6.798 -20.17,6.985 -12.85,4.966 -12.77,5.667 -12.69,6.37 -12.62,7.072 -12.53,7.774 -12.45,8.478 -12.38,9.181 -12.29,9.884 -12.21,10.587 -12.13,11.291 -12.06,11.995 -11.97,12.698 -11.89,13.403 -11.81,14.108 -11.73,14.812 -11.65,15.516 -13.72,19.675 -13.2,20.842 -12.66,22.008 -12.14,23.177 -11.6,24.345 -11.08,25.516 -10.56,26.684 -10.03,27.86 -12.42,38.56 -11.5,40.6 -10.57,42.63 -9.65,44.68"
       transform="scale(0.06)"
       id="path91"
       sodipodi:nodetypes="cccccccccccccccccccccccccccccccccccccccccccc" />
    <path
       style="fill:none;stroke:#000000;stroke-width:2;stroke-linecap:round;stroke-linejoin:round;stroke-miterlimit:10;stroke-opacity:1"
       d="m 5061.52,1199.35 -21.48,184.37"
       transform="scale(0.06)"
       id="path93"
       sodipodi:nodetypes="cc" />
    <path
       style="fill:none;stroke:#000000;stroke-width:2;stroke-linecap:round;stroke-linejoin:round;stroke-miterlimit:10;stroke-opacity:1"
       d="m 5040.04,1383.72 -13.52,103.53 -12.93,110.19 -12.31,116.86 -11.7,123.53 -1.36,15.49 -8.73,108.42 -7.71,114.73 -6.69,121.04 -5.65,127.36 -3.45,95.25"
       transform="scale(0.06)"
       id="path95"
       sodipodi:nodetypes="ccccccccccc" />
    <path
       style="fill:none;stroke:#000000;stroke-width:2;stroke-linecap:round;stroke-linejoin:round;stroke-miterlimit:10;stroke-opacity:1"
       d="m 6052.99,594.01 h -1333"
       transform="scale(0.06)"
       id="path97"
       sodipodi:nodetypes="cc" />
    <path
       style="fill:none;stroke:#000000;stroke-width:2;stroke-linecap:round;stroke-linejoin:round;stroke-miterlimit:10;stroke-opacity:1"
       d="M 4719.99,594.01 V 2419.99"
       transform="scale(0.06)"
       id="path99"
       sodipodi:nodetypes="cc" />
    <path
       style="fill:none;stroke:#000000;stroke-width:2;stroke-linecap:round;stroke-linejoin:round;stroke-miterlimit:10;stroke-opacity:1"
       d="m 4719.99,2419.99 h 236"
       transform="scale(0.06)"
       id="path101"
       sodipodi:nodetypes="cc" />
  </g>
</svg>
